…
gibraltar_total_bathymetric <- read_excel("RAW_Table of Bathymetric Data at 1400 Elevation.xlsx") %>% 
  clean_names() %>% 
  slice(1:23) %>%  # Kept years and capacity data & excluded irrelevant data 
  mutate(sed_inflow = case_when(
    year < 1945 ~ 14500 - volume_in_af,
    year > 1945 ~ 14800 - volume_in_af
  )) %>% # Used case_when to apply the different original capacities. For 1920 and 1944, the total original capacity is 14,500. For years after 1944, the total original capacity is 14,800 because the dam was raised (JJ)
  mutate(sed_inflow_m3 = (sed_inflow*1233.48)) %>%  # Converting from acre-feet to cubic meters
  filter(volume_in_af != 8939.00) # Removing the May 1979 survey because there were 2 bathymetric surveys conducted in 1979. When we plot sed in the following graph, the volumes for each survey are added together, making 1979 unusually large (JJ)

gibraltar_total_bathymetric

## # A tibble: 22 x 9
##    year  month contractor elevation volume_in_af change_from_pri~ notes
##    <chr> <chr> <chr>      <chr>            <dbl> <chr>            <chr>
##  1 1920  <NA>  <NA>       <NA>            14500  <NA>             Orig~
##  2 1944  <NA>  <NA>       <NA>             7600  <NA>             Take~
##  3 1949  <NA>  <NA>       <NA>            14800  <NA>             Dam ~
##  4 1969  Janu~ US Depart~ 1400             9708  <NA>             <NA> 
##  5 1973  Janu~ US Depart~ 1400             9350  -358             <NA> 
##  6 1979  Octo~ US Depart~ 1400             8986  47               <NA> 
##  7 1982  Octo~ US Depart~ 1400             8589  -397             <NA> 
##  8 1986  Sept~ ?          1400             8241. -347.7000000000~ <NA> 
##  9 1989  Febr~ BBS Envir~ 1400             8486. 244.90000000000~ Dred~
## 10 1992  June  MNS Engin~ 1400             8621. 134.39999999999~ <NA> 
## # ... with 12 more rows, and 2 more variables: sed_inflow <dbl>,
## #   sed_inflow_m3 <dbl>
…
